Vegname,Species,g0_lwL,lwCI_g0_lwL,upCI_g0_lwL,g1_lwL,UpCI_g1_lwL,LwCI_g1_lwL,g1b_lwL,lwCI_g1b_lwL,upCI_g1b_lwL,gs_min_lwL,gs_mean_lwL,gs_max_lwL,meanD_lwL,maxD_lwL,minPAR_lwL,minA_lwL,meanA_lwL,maxA_lwL,g0_hL,lwCI_g0_hL,upCI_g0_hL,g1_hL,UpCI_g1_hL,LwCI_g1_hL,g1b_hL,lwCI_g1b_hL,upCI_g1b_hL,gs_min_hL,gs_mean_hL,gs_max_hL,meanD_hL,maxD_hL,minPAR_hL,minA_hL,meanA_hL,maxA_hL,g0,lwCI_g0,upCI_g0,g1,UpCI_g1,LwCI_g1,g1b,lwCI_g1b,upCI_g1b,gs_min,gs_mean,gs_max,meanD,maxD,minPAR,minA,meanA,maxA,AIC_lwL,AICb_lwL,AIC_hL,AICb_hL,AIC,AICb
Mixed deciduous broad-leaved trees,Acer rubrum,0.048,0.032,0.064,2.510,1.520,3.500,4.931,4.200,5.661,0.020,0.097,0.270,1.65,3.32,-1,0.16,3.32,9.77,0.019,0.012,0.027,2.364,2.052,2.676,3.087,2.929,3.245,0.010,0.101,0.350,2.88,6.44,313,0.150,6.413,24.570,0.031,0.024,0.038,2.085,1.767,2.403,3.286,3.104,3.468,0.010,0.100,0.350,2.62,6.44,-1,0.15,5.77,24.57,-240,-212,-1068,-1045,-1260,-1194
Evergreen coniferous trees,Agathis australis,0.045,0.032,0.058,4.192,2.826,5.558,8.445,7.618,9.272,0.053,0.092,0.173,1.45,1.88,56,0.68,2.36,5.18,0.035,0.018,0.053,3.528,2.985,4.072,4.439,4.107,4.771,0.023,0.157,0.360,1.20,1.88,302,0.460,5.751,11.080,0.047,0.038,0.056,3.278,2.916,3.640,4.701,4.366,5.037,0.023,0.128,0.360,1.31,1.88,56,0.46,4.24,11.08,-232,-200,-213,-200,-425,-353
C4 grass,Andropogon gayanus,0.078,0.027,0.129,5.415,2.786,8.045,8.735,7.089,10.381,0.033,0.189,0.463,2.14,3.48,71,0.67,4.99,17.60,0.154,0.119,0.188,0.855,0.185,1.525,3.633,3.321,3.945,0.070,0.265,0.480,2.28,4.25,304,1.850,15.019,31.500,0.144,0.118,0.171,1.069,0.513,1.625,3.786,3.460,4.112,0.033,0.252,0.480,2.26,4.25,71,0.67,13.27,31.50,-69,-62,-332,-270,-395,-305
Mixed deciduous broad-leaved trees,Betula alleghaniensis,0.147,0.075,0.218,4.536,0.197,8.875,12.240,9.215,15.266,0.110,0.228,0.370,1.26,2.27,30,0.18,3.38,7.16,0.087,0.055,0.119,3.750,2.828,4.672,6.045,5.638,6.453,0.050,0.256,0.690,2.50,5.88,300,0.320,9.586,19.500,0.114,0.086,0.142,3.145,2.295,3.996,6.237,5.791,6.684,0.050,0.253,0.690,2.34,5.88,30,0.18,8.81,19.50,-42,-30,-314,-289,-349,-297
Mixed deciduous broad-leaved trees,Betula papyrifera,0.130,0.019,0.240,4.029,-0.993,9.051,9.423,7.216,11.629,0.100,0.237,0.530,1.63,2.98,81,1.55,5.10,12.08,0.040,0.009,0.071,3.867,3.170,4.564,4.684,4.408,4.960,0.037,0.258,0.670,2.20,5.51,309,1.460,11.970,27.167,0.075,0.045,0.104,3.251,2.567,3.935,4.830,4.525,5.134,0.037,0.256,0.670,2.13,5.51,81,1.46,11.17,27.17,-36,-33,-383,-379,-403,-381
Deciduous shrubs,Celtis reticulata,0.061,-0.099,0.220,2.247,-24.513,29.006,9.654,-7.323,26.631,0.040,0.077,0.139,1.77,2.11,100,0.14,1.51,3.91,0.142,0.091,0.193,1.827,0.738,2.916,4.496,3.446,5.547,0.149,0.263,0.394,1.37,1.96,400,1.924,10.902,19.792,0.093,0.053,0.134,2.713,1.721,3.706,4.524,3.556,5.492,0.040,0.216,0.394,1.47,2.11,100,0.14,8.55,19.79,-9,-8,-41,-24,-49,-35
Evergreen coniferous trees,Chamaecyparis obtusa,-0.010,-0.018,-0.002,2.660,1.978,3.343,1.844,1.623,2.065,0.015,0.034,0.130,1.74,2.63,150,0.61,3.70,5.62,-0.014,-0.019,-0.009,2.804,2.471,3.137,1.981,1.887,2.075,0.019,0.051,0.133,1.84,2.66,301,2.480,5.147,8.370,-0.012,-0.016,-0.008,2.711,2.436,2.985,1.965,1.879,2.050,0.015,0.047,0.133,1.82,2.66,150,0.61,4.84,8.37,-796,-791,-2863,-2840,-3658,-3630
Mixed evergreen broad-leaved trees,Eucalyptus capillosa,0.020,0.014,0.026,2.326,1.995,2.657,3.172,2.939,3.405,0.004,0.070,0.190,2.75,7.13,1,0.19,4.02,14.70,0.007,0.004,0.010,1.765,1.679,1.852,1.960,1.913,2.008,0.002,0.089,0.246,3.26,8.92,301,0.066,7.783,15.400,0.012,0.010,0.015,1.688,1.602,1.773,2.034,1.984,2.085,0.002,0.086,0.246,3.18,8.92,1,0.07,7.18,15.40,-918,-880,-5135,-5110,-5931,-5842
Mixed evergreen broad-leaved trees,Eucalyptus delegatensis,0.061,0.031,0.092,3.872,2.861,4.883,5.650,5.135,6.165,0.019,0.190,0.421,1.11,2.29,50,0.99,5.69,12.43,0.035,0.014,0.056,3.002,2.645,3.360,3.524,3.349,3.700,0.010,0.243,0.557,1.33,2.79,399,1.274,11.566,22.225,0.062,0.046,0.078,2.728,2.414,3.042,3.749,3.571,3.928,0.010,0.227,0.557,1.26,2.79,50,0.99,9.76,22.23,-250,-237,-549,-541,-777,-726
Mixed evergreen broad-leaved trees,Eucalyptus salmonophloiia,0.002,-0.003,0.007,1.630,1.165,2.095,1.784,1.526,2.041,0.004,0.027,0.096,2.75,8.20,23,0.09,2.30,8.61,-0.002,-0.005,0.002,1.491,1.317,1.665,1.420,1.321,1.519,0.001,0.041,0.127,3.02,8.30,324,0.010,4.332,13.000,-0.001,-0.004,0.002,1.468,1.307,1.629,1.434,1.341,1.527,0.001,0.039,0.127,2.99,8.30,23,0.01,4.11,13.00,-194,-196,-1294,-1295,-1474,-1476
Mixed evergreen broad-leaved trees,Eucalyptus_cladocalyx_AH,,,,,,,,,,,,,,,,,,,0.226,0.192,0.260,1.055,0.564,1.547,4.077,3.751,4.403,0.092,0.370,0.530,1.60,2.80,398,6.543,18.365,30.600,0.231,0.197,0.264,1.005,0.510,1.500,4.105,3.774,4.436,0.092,0.370,0.530,1.58,2.80,149,6.54,18.13,30.60,,,-240,-143,-242,-143
Mixed evergreen broad-leaved trees,Eucalyptus_dunnii_AH,0.022,-0.241,0.284,4.362,-4.282,13.006,4.957,3.289,6.625,0.031,0.152,0.234,1.03,1.85,49,0.50,4.92,7.22,0.031,-0.023,0.084,4.482,3.770,5.194,4.854,4.572,5.136,0.045,0.422,0.750,1.60,3.18,399,1.550,19.290,32.300,0.029,-0.021,0.079,4.498,3.825,5.172,4.855,4.578,5.131,0.031,0.414,0.750,1.58,3.18,49,0.50,18.83,32.30,-12,-12,-153,-154,-161,-162
Mixed evergreen broad-leaved trees,Eucalyptus_melliodora_AH,0.013,-0.099,0.126,3.803,-1.565,9.172,4.329,2.353,6.305,0.007,0.093,0.156,1.05,1.60,94,0.60,3.39,5.46,-0.006,-0.040,0.029,3.389,2.910,3.869,3.316,3.137,3.494,0.035,0.302,0.514,1.67,3.06,411,3.695,19.121,30.100,0.000,-0.031,0.031,3.325,2.886,3.763,3.319,3.144,3.495,0.007,0.292,0.514,1.64,3.06,94,0.60,18.43,30.10,-13,-15,-236,-238,-250,-252
Mixed evergreen broad-leaved trees,Eucalyptus_saligna_AH,0.007,-0.027,0.042,3.238,1.096,5.380,3.522,1.941,5.103,0.014,0.048,0.179,1.38,1.92,40,0.21,1.92,6.20,-0.017,-0.042,0.008,3.500,3.112,3.888,3.273,3.079,3.468,0.022,0.244,0.647,1.90,3.74,410,2.108,15.466,29.500,-0.012,-0.033,0.010,3.434,3.085,3.782,3.275,3.087,3.463,0.014,0.228,0.647,1.86,3.74,40,0.21,14.40,29.50,-36,-38,-309,-309,-343,-344
Evergreen shrubs,Larrea tridentata,0.011,0.005,0.017,1.582,0.759,2.406,2.804,2.249,3.358,0.005,0.031,0.077,3.85,7.21,0,0.16,2.45,6.22,0.013,0.011,0.015,0.945,0.703,1.188,2.148,1.935,2.361,0.007,0.030,0.084,4.06,6.70,343,0.325,2.641,10.433,0.013,0.011,0.015,1.026,0.786,1.267,2.250,2.049,2.450,0.005,0.030,0.084,4.02,7.21,0,0.16,2.61,10.43,-262,-252,-1277,-1159,-1536,-1408
Tropical evergreen broad-leaved trees,Manilkara,0.005,-0.003,0.012,1.571,0.950,2.193,1.855,1.420,2.291,0.009,0.031,0.064,1.55,1.71,10,0.01,2.81,6.55,-0.001,-0.010,0.007,1.910,1.085,2.736,1.820,1.455,2.186,0.006,0.027,0.053,2.09,2.60,369,0.542,3.056,5.864,0.002,-0.002,0.007,1.688,1.302,2.074,1.842,1.602,2.083,0.006,0.029,0.064,1.80,2.60,10,0.01,2.92,6.55,-45,-43,-39,-41,-86,-87
Evergreen shrubs,Phillyrea angustifolia,0.046,-0.003,0.094,1.281,-4.830,7.392,6.229,2.072,10.387,0.036,0.064,0.090,2.10,2.49,49,0.37,2.42,4.02,0.028,-0.005,0.061,3.025,1.330,4.719,4.360,3.657,5.063,0.053,0.112,0.191,3.01,3.87,325,2.700,6.782,11.270,0.034,0.013,0.054,2.751,1.540,3.963,4.466,3.755,5.177,0.036,0.100,0.191,2.77,3.87,49,0.37,5.64,11.27,-25,-22,-74,-72,-104,-96
Evergreen coniferous trees,Picea sitchensis,0.040,0.032,0.048,0.714,0.532,0.896,1.540,1.423,1.657,0.022,0.090,0.165,0.38,1.76,13,0.44,4.64,8.65,0.023,0.012,0.034,1.983,1.676,2.291,2.557,2.418,2.696,0.024,0.121,0.314,1.35,2.97,302,1.782,10.611,27.122,0.034,0.025,0.043,1.405,1.163,1.646,2.209,2.093,2.324,0.022,0.113,0.314,1.10,2.97,13,0.44,9.10,27.12,-444,-379,-893,-879,-1208,-1160
Evergreen coniferous trees,Pinus densiflora,0.017,0.012,0.023,1.981,1.696,2.267,2.849,2.736,2.963,0.015,0.070,0.129,1.32,2.93,150,0.34,4.27,8.32,0.020,0.017,0.022,0.957,0.832,1.082,1.861,1.812,1.910,0.016,0.064,0.122,2.03,3.55,301,0.798,5.928,11.422,0.021,0.018,0.024,1.109,0.978,1.240,2.095,2.043,2.146,0.015,0.066,0.129,1.84,3.55,150,0.34,5.48,11.42,-1818,-1781,-5446,-5240,-6938,-6710
Evergreen shrubs,Pistacia lentiscus,0.046,-0.003,0.094,1.281,-4.830,7.392,6.229,2.072,10.387,0.036,0.064,0.090,2.10,2.49,49,0.37,2.42,4.02,0.028,-0.005,0.061,3.025,1.330,4.719,4.360,3.657,5.063,0.053,0.112,0.191,3.01,3.87,325,2.700,6.782,11.270,0.034,0.013,0.054,2.751,1.540,3.963,4.466,3.755,5.177,0.036,0.100,0.191,2.77,3.87,49,0.37,5.64,11.27,-25,-22,-74,-72,-104,-96
Deciduous shrubs,Prosopis velutina,0.057,0.004,0.111,4.836,2.942,6.729,6.488,5.360,7.615,0.008,0.195,0.608,1.54,2.50,100,0.31,6.03,12.64,-0.026,-0.046,-0.005,3.203,2.908,3.498,2.889,2.736,3.042,0.008,0.251,0.671,2.42,4.80,400,0.263,18.422,44.522,0.047,0.023,0.072,2.519,2.111,2.928,3.159,2.907,3.410,0.008,0.232,0.671,2.13,4.80,100,0.26,14.27,44.52,-82,-79,-353,-349,-330,-317
Mixed deciduous broad-leaved trees,Quercus petraea_MB,0.105,0.083,0.128,2.440,0.789,4.091,8.781,7.570,9.992,0.010,0.148,0.350,1.94,3.88,21,0.30,3.23,11.50,0.092,0.058,0.126,2.308,0.776,3.839,6.007,5.231,6.782,0.020,0.168,0.340,2.38,3.97,313,1.000,6.429,12.200,0.105,0.087,0.123,2.016,1.017,3.014,6.921,6.233,7.609,0.010,0.157,0.350,2.13,3.97,21,0.30,4.64,12.20,-280,-219,-211,-187,-494,-395
Mixed deciduous broad-leaved trees,Quercus robur_MB,0.107,0.088,0.125,1.177,-0.111,2.465,7.157,6.021,8.293,0.020,0.136,0.300,2.09,4.03,48,0.70,3.38,11.40,0.101,0.070,0.132,1.592,0.170,3.015,5.769,4.999,6.540,0.020,0.161,0.290,2.30,4.06,308,1.600,6.126,13.900,0.105,0.089,0.120,1.390,0.530,2.251,6.310,5.641,6.980,0.020,0.146,0.300,2.17,4.06,48,0.70,4.49,13.90,-306,-222,-206,-174,-518,-393
Mixed deciduous broad-leaved trees,Quercus rubra,0.037,0.011,0.062,5.459,4.031,6.886,7.173,6.338,8.008,0.010,0.136,0.460,1.56,2.85,26,0.28,3.53,13.02,0.017,-0.006,0.039,4.654,4.093,5.215,5.031,4.799,5.263,0.030,0.244,0.730,2.46,5.14,312,1.950,10.387,28.040,0.033,0.017,0.050,4.347,3.896,4.797,5.133,4.911,5.356,0.010,0.222,0.730,2.28,5.14,26,0.28,8.99,28.04,-189,-183,-602,-602,-780,-766
Mixed deciduous broad-leaved trees,Quercus rubra_MB,0.061,0.044,0.078,1.703,0.666,2.740,4.929,4.255,5.603,0.020,0.103,0.260,1.97,4.19,54,0.80,3.94,11.10,0.032,0.017,0.047,2.016,1.283,2.748,3.470,3.150,3.789,0.020,0.097,0.240,2.50,4.60,346,1.100,6.016,11.700,0.051,0.039,0.062,1.523,0.911,2.135,3.939,3.609,4.269,0.020,0.099,0.260,2.28,4.60,54,0.80,5.14,11.70,-300,-260,-458,-442,-739,-676
Arable crops,Triticum aestivum,0.084,0.064,0.105,2.283,1.602,2.964,4.407,3.770,5.044,0.027,0.161,0.394,1.44,1.77,34,0.21,6.14,21.40,-0.018,-0.044,0.007,3.630,3.279,3.981,3.402,3.261,3.543,0.002,0.298,0.682,1.34,2.40,317,0.038,16.931,29.400,0.040,0.023,0.057,2.932,2.667,3.196,3.461,3.317,3.605,0.002,0.261,0.682,1.37,2.40,34,0.04,13.99,29.40,-198,-151,-450,-450,-612,-593
