"Species","g0","lwCI_g0","upCI_g0","g1","UpCI_g1","LwCI_g1","AIC","g1b","lwCI_g1b","upCI_g1b","AICb","#Species","#Loc","gs_min","gs_mean","gs_max","meanD","maxD","minPAR","minA","meanA","maxA","Vegname"
"Acer rubrum",0.019345304726491,0.0120188874796919,0.0266717261874207,2.36438970497371,2.05230726226449,2.6764719692334,-1068.42611780439,3.08653031820333,2.92853385741218,3.24452677569481,-1044.54814984394,1,1,0.01,0.10088,0.35,2.87876,6.44,313.43,0.15,6.41304,24.57,"Mixed deciduous broad-leaved trees"
"Agathis australis",0.0352682663286478,0.0175865917810365,0.0529499434830746,3.52844159595658,2.98502095047765,4.07186206061047,-212.714759651535,4.43868762788901,4.10665499475757,4.77072026711613,-200.177254195301,1,1,0.0226,0.157073684210526,0.3598,1.19859649122807,1.88,302.2,0.46,5.75052631578947,11.08,"Evergreen coniferous trees"
"Andropogon gayanus",0.153619340749868,0.119366137279926,0.187872543412423,0.855177109479815,0.185361863574054,1.52499149002768,-332.043610390822,3.63313470020275,3.3209567854434,3.94531261394481,-269.785152495719,1,1,0.0703,0.264859775641026,0.48,2.28230769230769,4.25,304,1.85,15.019375,31.5,"C4 grass"
"Betula alleghaniensis",0.0873635360974073,0.0552392001521931,0.119487878647044,3.7497702532866,2.82752963592701,4.67201026517857,-313.69440179419,6.0452248657391,5.63778323738242,6.45266649430195,-289.072646424085,1,1,0.05,0.256187050359712,0.69,2.49985611510791,5.88,300.13,0.32,9.58618705035971,19.5,"Mixed deciduous broad-leaved trees"
"Betula papyrifera",0.0399017640427508,0.00856078478773207,0.0712427395368637,3.86727040723525,3.17046845153678,4.56407224992841,-382.779368866925,4.68406530250753,4.40819427173626,4.95993633193997,-378.50732661617,1,2,0.03731732,0.258359659840659,0.67,2.19505691744506,5.51,309.27,1.46,11.9703663003736,27.16666667,"Mixed deciduous broad-leaved trees"
"Celtis reticulata",0.141624301023553,0.0905265467633305,0.192722057328346,1.82664729058314,0.737515688909865,2.91577818720134,-41.2034641812254,4.49625478133267,3.44567205472013,5.54683751233609,-24.3456552924701,1,1,0.1485,0.262951075916667,0.393583333,1.37219522283333,1.96,400,1.92375,10.9019523055,19.79166667,"Deciduous shrubs"
"Chamaecyparis obtusa",-0.0139859908431827,-0.0194227709787124,-0.00854921725778333,2.80388913146178,2.47118004628188,3.136598516221,-2862.84292128675,1.9812982583946,1.88737351896784,2.07522300027545,-2839.79411425665,1,1,0.019,0.0507332123411978,0.133,1.84101814882033,2.66,301,2.48,5.14738656987296,8.37,"Evergreen coniferous trees"
"Eucalyptus capillosa",0.00718105558590359,0.00449970420265495,0.00986240748110879,1.76521042601175,1.67851862293799,1.85190223548881,-5135.43368726477,1.96033104641756,1.91279771001564,2.0078643887143,-5110.10586460123,1,1,0.00195,0.0889796371681416,0.246,3.26459646017699,8.92,301,0.0656,7.78323699115044,15.4,"Mixed evergreen broad-leaved trees"
"Eucalyptus delegatensis",0.0348822766067684,0.0139528562157116,0.0558117097066491,3.00232628960501,2.64482650951598,3.35982574616327,-549.467550445922,3.52447938796069,3.34899876583083,3.69996000661675,-540.833733461782,1,2,0.009543333,0.242817549113725,0.5565,1.32974897622745,2.791666667,399,1.273666667,11.5657466970549,22.225,"Mixed evergreen broad-leaved trees"
"Eucalyptus salmonophloiia",-0.00157866493804002,-0.00475916798577167,0.00160183773161342,1.49081639961989,1.31675649087905,1.66487634897135,-1294.45413390776,1.41982044564975,1.32064503758708,1.51899587600348,-1295.49099052594,1,1,0.00118,0.0407550660792952,0.127,3.02400881057269,8.3,324,0.0101,4.33213568281938,13,"Mixed evergreen broad-leaved trees"
"Eucalyptus_cladocalyx_AH",0.22601697509349,0.192093814450305,0.259940113068045,1.05546050139725,0.563984144459424,1.54693624142761,-239.810273185727,4.07665884813988,3.75068454736848,4.40263315462888,-143.169944825393,1,1,0.091575,0.369739722222222,0.5295,1.60005833333333,2.7975,398,6.5425,18.3649444444444,30.6,"Mixed evergreen broad-leaved trees"
"Eucalyptus_dunnii_AH",0.0306019265040083,-0.0232077524292637,0.084411608898682,4.48225785584748,3.7703251793456,5.19419039911955,-153.058290764352,4.8541740714868,4.57240720767868,5.13594093662028,-153.761954914027,1,1,0.0445,0.422309706956044,0.74975,1.60006318681319,3.1825,399,1.55,19.2896703296703,32.3,"Mixed evergreen broad-leaved trees"
"Eucalyptus_melliodora_AH",-0.00573947331910999,-0.0404128205850554,0.0289338850707409,3.38911962168782,2.90952917383916,3.86871000000359,-235.797242194351,3.31552607714245,3.13664923740752,3.49440291539804,-237.686445927753,1,1,0.034975,0.301510344827586,0.5142,1.6700132183908,3.055,411,3.695,19.1209482758621,30.1,"Mixed evergreen broad-leaved trees"
"Eucalyptus_saligna_AH",-0.0169160194750687,-0.042008272376151,0.00817623348657215,3.50009041787948,3.11201101798423,3.88816993696861,-308.858878391287,3.27347347802183,3.0789695358301,3.46797742085861,-309.063772064491,1,1,0.022375,0.243638875968992,0.6474,1.89928720930233,3.735,410,2.1075,15.4663178294574,29.5,"Mixed evergreen broad-leaved trees"
"Larrea tridentata",0.0128702932905361,0.0108925008089131,0.0148480854593865,0.945326810167033,0.702837090440159,1.18781657178167,-1277.03978123194,2.14828556315091,1.93518807645558,2.36138305117382,-1158.70699932848,1,1,0.00667,0.0300068786410256,0.08418,4.05764786326154,6.703333333,343.3333333,0.3249,2.64135094014872,10.43333333,"Evergreen shrubs"
"Manilkara",-0.0011137486674095,-0.00950115278961352,0.00727365460226642,1.91044220049978,1.08482304504215,2.73606133879815,-39.3409877099505,1.82029610611419,1.45487279337017,2.18571942074533,-41.0518705594618,1,1,0.00585,0.02723,0.05348,2.0916,2.604,369.2,0.542,3.05592,5.864,"Tropical evergreen broad-leaved trees"
"Phillyrea angustifolia",0.0280787884355644,-0.00472378323466797,0.0608813659709059,3.02456207388304,1.329982508741,4.71914138728697,-73.6745418756379,4.3604102687013,3.65736577226429,5.06345476916035,-72.267320276858,1,1,0.053,0.112058823529412,0.191,3.00941176470588,3.87,325,2.7,6.78235294117647,11.27,"Evergreen shrubs"
"Picea sitchensis",0.022763030699363,0.0118143767623708,0.0337116863493904,1.98341139593958,1.6762111895756,2.29061149071769,-893.164429205837,2.55743921496221,2.41841308731166,2.69646534002146,-878.815926595275,1,2,0.023952965,0.121194678322314,0.314493255,1.34789310271488,2.967260283,302.38,1.78193279,10.6106568107025,27.12178552,"Evergreen coniferous trees"
"Pinus densiflora",0.0197113850490134,0.0171703215365519,0.0222524498328484,0.95712868076001,0.832494267236938,1.08176303708218,-5445.63325410515,1.86107991787055,1.81185277683588,1.91030705940171,-5239.61639772554,1,1,0.016,0.0639279625779626,0.1219,2.02726715176715,3.55,301,0.798,5.92836278586279,11.422,"Evergreen coniferous trees"
"Pistacia lentiscus",0.0280787884355644,-0.00472378323466797,0.0608813659709059,3.02456207388304,1.329982508741,4.71914138728697,-73.6745418756379,4.3604102687013,3.65736577226429,5.06345476916035,-72.267320276858,1,1,0.053,0.112058823529412,0.191,3.00941176470588,3.87,325,2.7,6.78235294117647,11.27,"Evergreen shrubs"
"Prosopis velutina",-0.0257155644641826,-0.0464610040805554,-0.00497012449351319,3.20315215438902,2.90841713629686,3.49788731951826,-352.848849229063,2.88881906634607,2.73569717880509,3.04194096171415,-348.877737752893,1,2,0.008216051,0.250960904643411,0.671186649,2.42322017445736,4.795,400,0.262727073,18.4223443323721,44.5220477,"Deciduous shrubs"
"Quercus petraea_MB",0.0918297538933158,0.0577048080888646,0.125954715400571,2.30750508358804,0.776101489404908,3.83890788659222,-210.509181128252,6.00689255329497,5.23141557229826,6.78236953035265,-187.255864481849,1,1,0.02,0.167701149425287,0.34,2.37665112162069,3.965835928,313,1,6.42873563218391,12.2,"Mixed deciduous broad-leaved trees"
"Quercus robur_MB",0.101261945348628,0.070168310498808,0.132355603333045,1.59216935599826,0.16977187623198,3.01456579120704,-205.603978192026,5.76935489519972,4.99872861305654,6.53998117318311,-173.572351897629,1,1,0.02,0.160958904109589,0.29,2.29586051138356,4.055119443,308,1.6,6.12602739726027,13.9,"Mixed deciduous broad-leaved trees"
"Quercus rubra",0.0167456598765539,-0.00593737386224805,0.0394286975536234,4.65372732708127,4.09280126252812,5.2146532589286,-601.896537682895,5.03098684047468,4.79921572686339,5.26275795309122,-601.776053494516,1,1,0.03,0.243759398496241,0.73,2.45954887218045,5.14,312.23,1.95,10.386954887218,28.04,"Mixed deciduous broad-leaved trees"
"Quercus rubra_MB",0.0321020641249351,0.0173210628854105,0.046883070654709,2.01578057275335,1.28321900566286,2.74834188363509,-457.696108203537,3.46953115720869,3.1498534108375,3.78920890274645,-442.247457033576,1,1,0.02,0.0969565217391304,0.24,2.49741792835652,4.603195932,346,1.1,6.01565217391304,11.7,"Mixed deciduous broad-leaved trees"
"Triticum aestivum",-0.0181703542755228,-0.0437744525554504,0.00743373266842675,3.62995371883784,3.27932493793388,3.98058277641168,-449.723769393542,3.40196616216195,3.26113116898695,3.54280116045144,-449.752177370844,1,1,0.00175,0.298225815217391,0.682,1.34274456521739,2.4,317,0.0384,16.9308554347826,29.4,"Arable crops"
