Vegname,g0_lwL,CImagnitude1,#Species_lwL,gs_min_lwL,lwCI_g0_lwL,upCI_g0_lwL,g1_lwL,UpCI_g1_lwL,LwCI_g1_lwL,AIC_lwL,g1b_lwL,lwCI_g1b_lwL,upCI_g1b_lwL,AICb_lwL,#Loc_lwL,gs_mean_lwL,gs_max_lwL,meanD_lwL,maxD_lwL,minPAR_lwL,minA_lwL,meanA_lwL,maxA_lwL
Arable crops,0.084418563,0.020292093,1,0.0268,0.06412647,0.104710664,2.28300071,1.60189401,2.964106899,-198.2557228,4.407124075,3.769901057,5.04434709,-151.4306904,1,0.161365217,0.394,1.440507246,1.77,34,0.206,6.144391304,21.4
C3 grass,,,,,,,,,,,,,,,,,,,,,,,
C4 grass,0.078060484,0.051373849,1,0.0325,0.026686635,0.129434337,5.415119386,2.785737371,8.044501153,-68.68126509,8.734615538,7.088507973,10.38072303,-61.77561833,1,0.188696212,0.463,2.142121212,3.48,71,0.666,4.992901515,17.6
Citrus crops,,,,,,,,,,,,,,,,,,,,,,,
Cotton,,,,,,,,,,,,,,,,,,,,,,,
Deciduous conifer tree,,,,,,,,,,,,,,,,,,,,,,,
Evergreen coniferous trees,0.027738028,0.003405436,4,0.015,0.024332593,0.031143467,1.147061682,0.992683033,1.301440193,-2878.398076,2.179639553,2.075300603,2.2839785,-2664.900853,4,0.06584735,0.173,1.305859621,2.93,12.5,0.337,4.046522082,8.65
Deciduous shrubs,0.056354123,0.048570342,2,0.007817,0.007783781,0.104924457,4.855160936,3.08460621,6.625715689,-90.99244056,6.496200081,5.397770444,7.594629731,-87.678962,2,0.187863277,0.607741606,1.551775385,2.498333333,100,0.13991,5.76927666,12.63887944
Evergreen shrubs,0.021505639,0.013773633,3,0.005343333,0.007732005,0.035279272,1.701974344,-0.158458556,3.562407342,-144.486705,4.049389394,2.798584369,5.300194433,-137.145909,2,0.040735591,0.09,3.472440476,7.206666667,-0.333333333,0.206,2.189392473,6.216666667
Mixed deciduous broad-leaved trees,0.080378906,0.010997448,7,0.01,0.069381459,0.091376357,2.986067561,2.292076081,3.680058959,-1204.443412,7.186984044,6.722141779,7.651826297,-1034.259826,2,0.1361875,0.53,1.842408165,4.192320507,-0.76,0.16,3.5318125,13.02
Mixed evergreen broad-leaved trees,0.010723634,0.009655879,7,0.00383,0.001067755,0.020379512,4.265979035,3.832925386,4.69903273,-1052.053574,4.641246146,4.369047732,4.913444568,-1049.289619,4,0.104709065,0.42875,2.173168877,8.2,1,0.0872,4.349921402,14.7
Tropical deciduous broad-leaved trees,,,,,,,,,,,,,,,,,,,,,,,
Tropical evergreen broad-leaved trees,0.00458068,0.007627796,1,0.008798,-0.003047116,0.012208476,1.571450513,0.949794054,2.193106998,-44.5903917,1.855157744,1.419528342,2.290787137,-43.42432273,1,0.030626333,0.06398,1.549333333,1.71,10,0.01102506,2.807204177,6.552
