Vegname,g0_hot,CImagnitude1,#Species,gs_min,lwCI_g0_hot,upCI_g0_hot,g1,UpCI_g1,LwCI_g1,AIC,g1b,lwCI_g1b,upCI_g1b,AICb,#Loc,gs_max,gs_mean,meanD,maxD,minPAR,minA,meanA,maxA
Evergreen coniferous trees,0.004051132,0.001228039,2,0.0018,0.002823093,0.005279171,1.965005943,1.871875453,2.058136457,-6284.348701,2.198457566,2.136786634,2.260128503,-6245.163561,1,0.037760994,0.2039,2.851453542,8.08,2000,0.015,3.226225391,9.451
Mixed deciduous broad-leaved trees,0.019345305,0.007326417,1,0.01,0.012018887,0.026671726,2.364389705,2.052307262,2.676471969,-1068.426118,3.086530318,2.928533857,3.244526776,-1044.54815,1,0.10088,0.35,2.87876,6.44,313.43,0.15,6.41304,24.57
Mixed evergreen broad-leaved trees,0.0039782,0.002209023,3,0.00118,0.001769177,0.006187223,1.800490082,1.724809352,1.87617084,-6521.297896,1.913209975,1.87049351,1.955926446,-6510.855253,2,0.080594119,0.246,3.187006406,8.92,301,0.0101,7.21591417,16.13504537
