,Vegname,gs_night,upCI_gs_night,lwCI_gs_night
Arable crops,Arable crops,0.048666667,0.053466667,0.043866666
C3 grass,C3 grass,0.07366,0.13076,0.01264
C4 grass,C4 grass,0.078442857,0.2608,0.0161
Citrus crops,Citrus crops,0.04969,0.04969,0.04969
Cotton,Cotton,,,
Deciduous conifer tree,Deciduous conifer tree,0.042,0.042,0.042
Evergreen coniferous trees,Evergreen coniferous trees,0.023,0.054,0.0046
Deciduous shrubs,Deciduous shrub,0.095070833,0.27357,0.03137
Evergreen shrubs,Evergreen shrub,0.045633333,0.08844,0.01167
Mixed deciduous broad-leaved trees,Mixed deciduous broad-leaved trees,0.055542727,0.13,0.015
Mixed evergreen broad-leaved trees,Mixed evergreen broad-leaved trees,0.025,0.03,0.0165
Tropical deciduous broad-leaved trees,Tropical deciduous broad-leaved trees,,,
Tropical evergreen broad-leaved trees,Tropical evergreen broad-leaved trees,,,
